JSON_CALLBACK (
{
"page": "1",
"per_page": 15,
"pages": 50,
"total": 750,
"shots": [
{
"id": 1810614,
"title": "Sign up Flow",
"description": "<p>I would like to thank Cai Cardenas for letting me join the game. My debut shot is a sign up flow for a nutrition app I just finished. iPhone &amp; Android release within 24 hours. Enjoy!</p>",
"height": 600,
"width": 800,
"likes_count": 0,
"comments_count": 0,
"rebounds_count": 0,
"url": "http://dribbble.com/shots/1810614-Sign-up-Flow",
"short_url": "http://drbl.in/mTFA",
"views_count": 0,
"rebound_source_id": null,
"image_url": "https://d13yacurqjgara.cloudfront.net/users/162248/screenshots/1810614/dribbble-debut-shot.png",
"image_teaser_url": "https://d13yacurqjgara.cloudfront.net/users/162248/screenshots/1810614/dribbble-debut-shot_teaser.png",
"image_400_url": "https://d13yacurqjgara.cloudfront.net/users/162248/screenshots/1810614/dribbble-debut-shot_1x.png",
"player": {
"id": 162248,
"name": "Daan Schaart",
"location": "Amsterdam",
"followers_count": 6,
"draftees_count": 0,
"likes_count": 309,
"likes_received_count": 0,
"comments_count": 0,
"comments_received_count": 0,
"rebounds_count": 0,
"rebounds_received_count": 0,
"url": "http://dribbble.com/daanschaart",
"avatar_url": "https://d13yacurqjgara.cloudfront.net/users/162248/avatars/normal/IMG_9614_(Square).jpg?1403443115",
"username": "daanschaart",
"twitter_screen_name": "daanschaart",
"website_url": "http://www.daanschaart.nl/",
"drafted_by_player_id": 4708,
"shots_count": 1,
"following_count": 78,
"created_at": "2012/06/13 07:43:04 -0400"
},
"created_at": "2014/11/16 19:59:13 -0500"
},
{
"id": 1810601,
"title": "Active X",
"description": "<p>Like everything except for one.\n<br />It's Active X in HTML5</p>",
"height": 600,
"width": 800,
"likes_count": 5,
"comments_count": 0,
"rebounds_count": 0,
"url": "http://dribbble.com/shots/1810601-Active-X",
"short_url": "http://drbl.in/mTFn",
"views_count": 9,
"rebound_source_id": null,
"image_url": "https://d13yacurqjgara.cloudfront.net/users/319025/screenshots/1810601/character.png",
"image_teaser_url": "https://d13yacurqjgara.cloudfront.net/users/319025/screenshots/1810601/character_teaser.png",
"image_400_url": "https://d13yacurqjgara.cloudfront.net/users/319025/screenshots/1810601/character_1x.png",
"player": {
"id": 319025,
"name": "Steveboks",
"location": "Seoul",
"followers_count": 2,
"draftees_count": 0,
"likes_count": 6,
"likes_received_count": 5,
"comments_count": 0,
"comments_received_count": 0,
"rebounds_count": 0,
"rebounds_received_count": 0,
"url": "http://dribbble.com/Steveboks",
"avatar_url": "https://d13yacurqjgara.cloudfront.net/users/319025/avatars/normal/89af11540e08621723f56db7bee8d631.jpg?1415156802",
"username": "Steveboks",
"twitter_screen_name": null,
"website_url": "http://steveboks.com",
"drafted_by_player_id": 101112,
"shots_count": 2,
"following_count": 18,
"created_at": "2013/04/17 20:53:25 -0400"
},
"created_at": "2014/11/16 19:49:29 -0500"
},
{
"id": 1810558,
"title": "RIA Logo",
"description": "<p>My first shot is the RIA Logo, which stands for Rich Internet Application.\n<br />Hope you enjoy it. :)</p>",
"height": 600,
"width": 800,
"likes_count": 2,
"comments_count": 0,
"rebounds_count": 0,
"url": "http://dribbble.com/shots/1810558-RIA-Logo",
"short_url": "http://drbl.in/mTEw",
"views_count": 31,
"rebound_source_id": null,
"image_url": "https://d13yacurqjgara.cloudfront.net/users/71754/screenshots/1810558/ria_systems.png",
"image_teaser_url": "https://d13yacurqjgara.cloudfront.net/users/71754/screenshots/1810558/ria_systems_teaser.png",
"image_400_url": "https://d13yacurqjgara.cloudfront.net/users/71754/screenshots/1810558/ria_systems_1x.png",
"player": {
"id": 71754,
"name": "Alexander Carapezza",
"location": "Cape Town",
"followers_count": 3,
"draftees_count": 0,
"likes_count": 71,
"likes_received_count": 2,
"comments_count": 1,
"comments_received_count": 0,
"rebounds_count": 0,
"rebounds_received_count": 0,
"url": "http://dribbble.com/AlexVanDamn",
"avatar_url": "https://d13yacurqjgara.cloudfront.net/users/71754/avatars/normal/1.jpg?1362768534",
"username": "AlexVanDamn",
"twitter_screen_name": "alex_van_damn",
"website_url": null,
"drafted_by_player_id": 266925,
"shots_count": 1,
"following_count": 9,
"created_at": "2011/10/28 09:55:52 -0400"
},
"created_at": "2014/11/16 18:43:34 -0500"
},
{
"id": 1810536,
"title": "Resume Breaking Bad",
"description": "<p>I had a little fun trying to design my resume on the theme of the tv show Breaking Bad. I think that cooking is a good analogy for the Web, that's why I chose to do it on Breaking Bad's theme since Jesse and Walter are cooking meth.</p>",
"height": 300,
"width": 400,
"likes_count": 4,
"comments_count": 0,
"rebounds_count": 0,
"url": "http://dribbble.com/shots/1810536-Resume-Breaking-Bad",
"short_url": "http://drbl.in/mTEa",
"views_count": 11,
"rebound_source_id": null,
"image_url": "https://d13yacurqjgara.cloudfront.net/users/620647/screenshots/1810536/dribbble_front_cropped.png",
"image_teaser_url": "https://d13yacurqjgara.cloudfront.net/users/620647/screenshots/1810536/dribbble_front_cropped_teaser.png",
"player": {
"id": 620647,
"name": "Vincent Taing",
"location": "Paris",
"followers_count": 1,
"draftees_count": 0,
"likes_count": 3,
"likes_received_count": 4,
"comments_count": 0,
"comments_received_count": 0,
"rebounds_count": 0,
"rebounds_received_count": 0,
"url": "http://dribbble.com/Vnctaing",
"avatar_url": "https://d13yacurqjgara.cloudfront.net/users/620647/avatars/normal/b6ab6b1570eae48bfe09bbd1a008d2ea.jpg?1416179381",
"username": "Vnctaing",
"twitter_screen_name": "vnctaing",
"website_url": "http://vnctaing.com",
"drafted_by_player_id": 25909,
"shots_count": 1,
"following_count": 4,
"created_at": "2014/07/24 21:48:08 -0400"
},
"created_at": "2014/11/16 18:01:57 -0500"
},
{
"id": 1810497,
"title": "Personal Logo",
"description": "<p>For the past few months I've been throwing ideas around for a new personal logo. As I've been thinking through it I keep coming back to a script style, but simplifying the shapes to fit into a geometric shape. After a few revisions I came up with this mark with my initials formed into a triangle. Feedback welcome!</p>",
"height": 300,
"width": 400,
"likes_count": 6,
"comments_count": 3,
"rebounds_count": 0,
"url": "http://dribbble.com/shots/1810497-Personal-Logo",
"short_url": "http://drbl.in/mTDn",
"views_count": 24,
"rebound_source_id": null,
"image_url": "https://d13yacurqjgara.cloudfront.net/users/679356/screenshots/1810497/tj.jpg",
"image_teaser_url": "https://d13yacurqjgara.cloudfront.net/users/679356/screenshots/1810497/tj_teaser.jpg",
"player": {
"id": 679356,
"name": "Tyler Johnson",
"location": "Duluth, MN",
"followers_count": 3,
"draftees_count": 0,
"likes_count": 11,
"likes_received_count": 9,
"comments_count": 2,
"comments_received_count": 3,
"rebounds_count": 0,
"rebounds_received_count": 0,
"url": "http://dribbble.com/tylerbjohnson",
"avatar_url": "https://d13yacurqjgara.cloudfront.net/users/679356/avatars/normal/e7bf2a630e6be1d5a54b1cfc75d73d62.jpg?1416176255",
"username": "tylerbjohnson",
"twitter_screen_name": null,
"website_url": null,
"drafted_by_player_id": 270039,
"shots_count": 2,
"following_count": 11,
"created_at": "2014/10/26 06:06:38 -0400"
},
"created_at": "2014/11/16 17:03:36 -0500"
},
{
"id": 1810446,
"title": "Tie your Tie",
"description": "<p>ui&amp;ux experiment in class.</p>",
"height": 300,
"width": 400,
"likes_count": 8,
"comments_count": 0,
"rebounds_count": 0,
"url": "http://dribbble.com/shots/1810446-Tie-your-Tie",
"short_url": "http://drbl.in/mTCo",
"views_count": 35,
"rebound_source_id": null,
"image_url": "https://d13yacurqjgara.cloudfront.net/users/294868/screenshots/1810446/app_howtotie.png",
"image_teaser_url": "https://d13yacurqjgara.cloudfront.net/users/294868/screenshots/1810446/app_howtotie_teaser.png",
"player": {
"id": 294868,
"name": "YouJin Choi",
"location": "NY",
"followers_count": 0,
"draftees_count": 0,
"likes_count": 1,
"likes_received_count": 12,
"comments_count": 0,
"comments_received_count": 0,
"rebounds_count": 0,
"rebounds_received_count": 0,
"url": "http://dribbble.com/YouJin-Choi",
"avatar_url": "https://d13yacurqjgara.cloudfront.net/users/294868/avatars/normal/29cf4f1c2c8fc2dbad06b339ab7bf855.jpg?1416172766",
"username": "YouJin-Choi",
"twitter_screen_name": null,
"website_url": "http://youjin-choi.com",
"drafted_by_player_id": 39,
"shots_count": 2,
"following_count": 34,
"created_at": "2013/03/07 21:17:53 -0500"
},
"created_at": "2014/11/16 15:48:22 -0500"
},
{
"id": 1810443,
"title": "txtr eBook app - Android version",
"description": "<p>Re-design of txtr Android app for the L release. \n<br />My goal was to create a modern, simple and functional interface following Material Design principles and Android patterns.</p>\n\n<p>You can take a look at my Behance to see the whole project :\n<br />https://www.behance.net/gallery/21356197/txtr-eBooks-Android-app</p>",
"height": 600,
"width": 800,
"likes_count": 7,
"comments_count": 0,
"rebounds_count": 0,
"url": "http://dribbble.com/shots/1810443-txtr-eBook-app-Android-version",
"short_url": "http://drbl.in/mTCl",
"views_count": 40,
"rebound_source_id": null,
"image_url": "https://d13yacurqjgara.cloudfront.net/users/694915/screenshots/1810443/android-dribbble.jpg",
"image_teaser_url": "https://d13yacurqjgara.cloudfront.net/users/694915/screenshots/1810443/android-dribbble_teaser.jpg",
"image_400_url": "https://d13yacurqjgara.cloudfront.net/users/694915/screenshots/1810443/android-dribbble_1x.jpg",
"player": {
"id": 694915,
"name": "Lydia Selimalhigazi",
"location": "Berlin",
"followers_count": 1,
"draftees_count": 0,
"likes_count": 3,
"likes_received_count": 15,
"comments_count": 0,
"comments_received_count": 0,
"rebounds_count": 0,
"rebounds_received_count": 0,
"url": "http://dribbble.com/lyslydia",
"avatar_url": "https://d13yacurqjgara.cloudfront.net/users/694915/avatars/normal/b1ff8fef0f53de88b4edadc7ff00e793.jpg?1416166836",
"username": "lyslydia",
"twitter_screen_name": null,
"website_url": "https://www.behance.net/LysDesign",
"drafted_by_player_id": 466245,
"shots_count": 3,
"following_count": 32,
"created_at": "2014/11/16 14:26:38 -0500"
},
"created_at": "2014/11/16 15:44:30 -0500"
},
{
"id": 1810417,
"title": "Thank you!",
"description": "<p>Thank you @[8563:Daniel Duke] for inviting me to be part of this amazing community. I look forward to sharing my work.</p>",
"height": 600,
"width": 800,
"likes_count": 5,
"comments_count": 1,
"rebounds_count": 0,
"url": "http://dribbble.com/shots/1810417-Thank-you",
"short_url": "http://drbl.in/mTBL",
"views_count": 16,
"rebound_source_id": null,
"image_url": "https://d13yacurqjgara.cloudfront.net/users/187165/screenshots/1810417/firstshot.jpg",
"image_teaser_url": "https://d13yacurqjgara.cloudfront.net/users/187165/screenshots/1810417/firstshot_teaser.jpg",
"image_400_url": "https://d13yacurqjgara.cloudfront.net/users/187165/screenshots/1810417/firstshot_1x.jpg",
"player": {
"id": 187165,
"name": "Pauline Sdrigotti",
"location": "Edinburgh, United Kingdom",
"followers_count": 4,
"draftees_count": 0,
"likes_count": 39,
"likes_received_count": 7,
"comments_count": 0,
"comments_received_count": 1,
"rebounds_count": 0,
"rebounds_received_count": 0,
"url": "http://dribbble.com/psdrigotti",
"avatar_url": "https://d13yacurqjgara.cloudfront.net/users/187165/avatars/normal/843500d21cb1cc4d9dfcd0491c058d61.jpg?1415728907",
"username": "psdrigotti",
"twitter_screen_name": "psdrigotti",
"website_url": "https://www.behance.net/paulinesdr",
"drafted_by_player_id": 8563,
"shots_count": 2,
"following_count": 74,
"created_at": "2012/08/06 07:23:51 -0400"
},
"created_at": "2014/11/16 15:05:18 -0500"
},
{
"id": 1810388,
"title": "Design ",
"description": "<p>Unused gif for the new NEVERBLAND.com site, launching tomorrow.</p>",
"height": 600,
"width": 800,
"likes_count": 19,
"comments_count": 3,
"rebounds_count": 0,
"url": "http://dribbble.com/shots/1810388-Design",
"short_url": "http://drbl.in/mTBi",
"views_count": 122,
"rebound_source_id": null,
"image_url": "https://d13yacurqjgara.cloudfront.net/users/691330/screenshots/1810388/d_unused.gif",
"image_teaser_url": "https://d13yacurqjgara.cloudfront.net/users/691330/screenshots/1810388/d_unused_teaser.gif",
"image_400_url": "https://d13yacurqjgara.cloudfront.net/users/691330/screenshots/1810388/d_unused_1x.gif",
"player": {
"id": 691330,
"name": "Oskar Sisi",
"location": "Poland",
"followers_count": 5,
"draftees_count": 0,
"likes_count": 0,
"likes_received_count": 19,
"comments_count": 0,
"comments_received_count": 3,
"rebounds_count": 0,
"rebounds_received_count": 0,
"url": "http://dribbble.com/oskarsisi",
"avatar_url": "https://dribbble.com/assets/avatar-default.gif",
"username": "oskarsisi",
"twitter_screen_name": null,
"website_url": null,
"drafted_by_player_id": 67251,
"shots_count": 1,
"following_count": 2,
"created_at": "2014/11/11 14:29:20 -0500"
},
"created_at": "2014/11/16 14:12:11 -0500"
},
{
"id": 1810385,
"title": "Meet the maker Christmas pop-up poster",
"description": "<p>A little poster I put together to advertise a Christmas pop-up event in Croyde, North Devon. I wanted to show a little bit of the maker's studio desks (without all the mess) to emphasise that all the goods on offer are from designer makers. Nice to use my hands and just add the last body of text on the mac!</p>",
"height": 600,
"width": 800,
"likes_count": 6,
"comments_count": 1,
"rebounds_count": 0,
"url": "http://dribbble.com/shots/1810385-Meet-the-maker-Christmas-pop-up-poster",
"short_url": "http://drbl.in/mTBf",
"views_count": 37,
"rebound_source_id": null,
"image_url": "https://d13yacurqjgara.cloudfront.net/users/567185/screenshots/1810385/dribbble_poster.jpg",
"image_teaser_url": "https://d13yacurqjgara.cloudfront.net/users/567185/screenshots/1810385/dribbble_poster_teaser.jpg",
"image_400_url": "https://d13yacurqjgara.cloudfront.net/users/567185/screenshots/1810385/dribbble_poster_1x.jpg",
"player": {
"id": 567185,
"name": "Jennie Lewis",
"location": "Devon, UK",
"followers_count": 3,
"draftees_count": 0,
"likes_count": 25,
"likes_received_count": 6,
"comments_count": 2,
"comments_received_count": 1,
"rebounds_count": 0,
"rebounds_received_count": 0,
"url": "http://dribbble.com/Jendoesdesign",
"avatar_url": "https://d13yacurqjgara.cloudfront.net/users/567185/avatars/normal/New_stamp.jpg?1399540402",
"username": "Jendoesdesign",
"twitter_screen_name": "jendoesdesign",
"website_url": null,
"drafted_by_player_id": 22695,
"shots_count": 1,
"following_count": 130,
"created_at": "2014/05/08 05:13:20 -0400"
},
"created_at": "2014/11/16 14:07:47 -0500"
},
{
"id": 1810374,
"title": "Engelins",
"description": "<p>Logo for Engelins. A family company that works with machinery sales, equipment rental and construction.</p>",
"height": 600,
"width": 800,
"likes_count": 6,
"comments_count": 1,
"rebounds_count": 0,
"url": "http://dribbble.com/shots/1810374-Engelins",
"short_url": "http://drbl.in/mTAU",
"views_count": 26,
"rebound_source_id": null,
"image_url": "https://d13yacurqjgara.cloudfront.net/users/117172/screenshots/1810374/engelins-logo-blue.jpg",
"image_teaser_url": "https://d13yacurqjgara.cloudfront.net/users/117172/screenshots/1810374/engelins-logo-blue_teaser.jpg",
"image_400_url": "https://d13yacurqjgara.cloudfront.net/users/117172/screenshots/1810374/engelins-logo-blue_1x.jpg",
"player": {
"id": 117172,
"name": "Tobias Heselius",
"location": "Stockholm, Sweden",
"followers_count": 3,
"draftees_count": 0,
"likes_count": 0,
"likes_received_count": 14,
"comments_count": 0,
"comments_received_count": 2,
"rebounds_count": 0,
"rebounds_received_count": 0,
"url": "http://dribbble.com/tobiasheselius",
"avatar_url": "https://d13yacurqjgara.cloudfront.net/users/117172/avatars/original/about_1.png?1331972399",
"username": "tobiasheselius",
"twitter_screen_name": "tobiasheselius",
"website_url": "http://www.tobiasheselius.com",
"drafted_by_player_id": 368322,
"shots_count": 4,
"following_count": 6,
"created_at": "2012/03/17 03:27:30 -0400"
},
"created_at": "2014/11/16 13:56:27 -0500"
},
{
"id": 1810365,
"title": "bakery logo",
"description": "<p>For my first shot I give you a concept logo for an old town bakery.</p>\n\n<p>Thanks so much to Dribbble for the invite! </p>",
"height": 600,
"width": 800,
"likes_count": 12,
"comments_count": 2,
"rebounds_count": 0,
"url": "http://dribbble.com/shots/1810365-bakery-logo",
"short_url": "http://drbl.in/mTAL",
"views_count": 31,
"rebound_source_id": null,
"image_url": "https://d13yacurqjgara.cloudfront.net/users/276587/screenshots/1810365/bakery.png",
"image_teaser_url": "https://d13yacurqjgara.cloudfront.net/users/276587/screenshots/1810365/bakery_teaser.png",
"image_400_url": "https://d13yacurqjgara.cloudfront.net/users/276587/screenshots/1810365/bakery_1x.png",
"player": {
"id": 276587,
"name": "Paulius",
"location": "Lithuania",
"followers_count": 9,
"draftees_count": 0,
"likes_count": 124,
"likes_received_count": 12,
"comments_count": 1,
"comments_received_count": 2,
"rebounds_count": 0,
"rebounds_received_count": 0,
"url": "http://dribbble.com/Kolodzeiskis",
"avatar_url": "https://d13yacurqjgara.cloudfront.net/users/276587/avatars/normal/229097_506690089347580_715216095_n.jpg?1384812665",
"username": "Kolodzeiskis",
"twitter_screen_name": "PauliusKole",
"website_url": "http://www.behance.net/paulius_ko",
"drafted_by_player_id": 39,
"shots_count": 1,
"following_count": 115,
"created_at": "2013/02/04 09:45:33 -0500"
},
"created_at": "2014/11/16 13:49:27 -0500"
},
{
"id": 1810285,
"title": "Dribbble app for Apple Watch",
"description": "<p>Hi dribbblers! It's my first shot and I'd like to share my dribbble app concept of Apple watch with you. This interaction ptototype is created in <a href=\"http://framerjs.com\" rel=\"nofollow\">Framerjs</a>. </p>\n\n<p>A huge thanks to @Dmitriy Chuta from <a href=\"https://dribbble.com/chapps\" rel=\"nofollow\">Chapps</a> for invitation.</p>",
"height": 300,
"width": 400,
"likes_count": 25,
"comments_count": 2,
"rebounds_count": 0,
"url": "http://dribbble.com/shots/1810285-Dribbble-app-for-Apple-Watch",
"short_url": "http://drbl.in/mTzj",
"views_count": 273,
"rebound_source_id": null,
"image_url": "https://d13yacurqjgara.cloudfront.net/users/255691/screenshots/1810285/iwatch_dribbble_400x300.gif",
"image_teaser_url": "https://d13yacurqjgara.cloudfront.net/users/255691/screenshots/1810285/iwatch_dribbble_400x300_teaser.gif",
"player": {
"id": 255691,
"name": "Artem",
"location": "Dnipropetrovsk, Ukraine",
"followers_count": 2,
"draftees_count": 0,
"likes_count": 14,
"likes_received_count": 25,
"comments_count": 0,
"comments_received_count": 2,
"rebounds_count": 0,
"rebounds_received_count": 0,
"url": "http://dribbble.com/ArtemTurchik",
"avatar_url": "https://d13yacurqjgara.cloudfront.net/users/255691/avatars/normal/ae78d83f3498123f3bcd4822fdf8ac84.png?1416146706",
"username": "ArtemTurchik",
"twitter_screen_name": null,
"website_url": null,
"drafted_by_player_id": 32399,
"shots_count": 1,
"following_count": 19,
"created_at": "2012/12/25 11:30:25 -0500"
},
"created_at": "2014/11/16 11:24:50 -0500"
},
{
"id": 1810278,
"title": "Bee Blue Garden: Bee Saving Box",
"description": "<p>Due to the growing concerns of bee disappearence, Bee Blue Garden was formed as an effort by South East England Gardeners to create more awareness by sending little kits around to families with gardens in the area. The term 'Bee Blue' comes from missing and lack of, therefore inspiring the logo of this project as well as a majority of the collateral. </p>\n\n<p>Find the full project here: https://www.behance.net/gallery/21300317/Bee-Blue-Garden</p>",
"height": 600,
"width": 800,
"likes_count": 22,
"comments_count": 2,
"rebounds_count": 0,
"url": "http://dribbble.com/shots/1810278-Bee-Blue-Garden-Bee-Saving-Box",
"short_url": "http://drbl.in/mTzc",
"views_count": 76,
"rebound_source_id": null,
"image_url": "https://d13yacurqjgara.cloudfront.net/users/653500/screenshots/1810278/3162abe012bdc299cb691390756524c9_1_.jpg",
"image_teaser_url": "https://d13yacurqjgara.cloudfront.net/users/653500/screenshots/1810278/3162abe012bdc299cb691390756524c9_1__teaser.jpg",
"image_400_url": "https://d13yacurqjgara.cloudfront.net/users/653500/screenshots/1810278/3162abe012bdc299cb691390756524c9_1__1x.jpg",
"player": {
"id": 653500,
"name": "Nikita Gill",
"location": "London",
"followers_count": 6,
"draftees_count": 0,
"likes_count": 57,
"likes_received_count": 24,
"comments_count": 4,
"comments_received_count": 2,
"rebounds_count": 0,
"rebounds_received_count": 0,
"url": "http://dribbble.com/accidentalnut",
"avatar_url": "https://d13yacurqjgara.cloudfront.net/users/653500/avatars/normal/52aa91a34d2194c358b25b679cd6b851.jpg?1411074752",
"username": "accidentalnut",
"twitter_screen_name": "AnOddity21",
"website_url": "https://www.behance.net/nikitagill",
"drafted_by_player_id": 82369,
"shots_count": 2,
"following_count": 2,
"created_at": "2014/09/18 17:11:07 -0400"
},
"created_at": "2014/11/16 11:05:18 -0500"
},
{
"id": 1810232,
"title": "debut",
"description": "<p>Thanks @Oleg Glauzer for the invite.</p>",
"height": 300,
"width": 400,
"likes_count": 12,
"comments_count": 2,
"rebounds_count": 0,
"url": "http://dribbble.com/shots/1810232-debut",
"short_url": "http://drbl.in/mTyi",
"views_count": 51,
"rebound_source_id": null,
"image_url": "https://d13yacurqjgara.cloudfront.net/users/694122/screenshots/1810232/first-01.jpg",
"image_teaser_url": "https://d13yacurqjgara.cloudfront.net/users/694122/screenshots/1810232/first-01_teaser.jpg",
"player": {
"id": 694122,
"name": "Oleg Trubitsyn",
"location": "Armavir, Russia",
"followers_count": 1,
"draftees_count": 0,
"likes_count": 37,
"likes_received_count": 12,
"comments_count": 1,
"comments_received_count": 2,
"rebounds_count": 0,
"rebounds_received_count": 0,
"url": "http://dribbble.com/Oleg_Trubitsyn",
"avatar_url": "https://d13yacurqjgara.cloudfront.net/users/694122/avatars/normal/7bdc614ce6e73bc3c04bb03e18a11c51.jpg?1416133261",
"username": "Oleg_Trubitsyn",
"twitter_screen_name": null,
"website_url": null,
"drafted_by_player_id": 98370,
"shots_count": 1,
"following_count": 6,
"created_at": "2014/11/15 03:10:44 -0500"
},
"created_at": "2014/11/16 09:45:38 -0500"
}
]
}
)
