JSON_CALLBACK (
{
"page": "1",
"per_page": 15,
"pages": 50,
"total": 750,
"shots": [
{
"id": 1810623,
"title": "Land Rover - Conept Webdesign",
"description": "<p>this is concept.\n<br />view more on Behance. Thanks.\n<br />http://bit.ly/1s4EVyR</p>",
"height": 600,
"width": 800,
"likes_count": 0,
"comments_count": 0,
"rebounds_count": 0,
"url": "http://dribbble.com/shots/1810623-Land-Rover-Conept-Webdesign",
"short_url": "http://drbl.in/mTFJ",
"views_count": 2,
"rebound_source_id": null,
"image_url": "https://d13yacurqjgara.cloudfront.net/users/319025/screenshots/1810623/lange.png",
"image_teaser_url": "https://d13yacurqjgara.cloudfront.net/users/319025/screenshots/1810623/lange_teaser.png",
"image_400_url": "https://d13yacurqjgara.cloudfront.net/users/319025/screenshots/1810623/lange_1x.png",
"player": {
"id": 319025,
"name": "Steveboks",
"location": "Seoul",
"followers_count": 2,
"draftees_count": 0,
"likes_count": 6,
"likes_received_count": 5,
"comments_count": 0,
"comments_received_count": 0,
"rebounds_count": 0,
"rebounds_received_count": 0,
"url": "http://dribbble.com/Steveboks",
"avatar_url": "https://d13yacurqjgara.cloudfront.net/users/319025/avatars/normal/89af11540e08621723f56db7bee8d631.jpg?1415156802",
"username": "Steveboks",
"twitter_screen_name": null,
"website_url": "http://steveboks.com",
"drafted_by_player_id": 101112,
"shots_count": 2,
"following_count": 18,
"created_at": "2013/04/17 20:53:25 -0400"
},
"created_at": "2014/11/16 20:09:42 -0500"
},
{
"id": 1810621,
"title": "App Sketches",
"description": "<p>I have pretty ugly sketches.. but they get the job done (sometimes). Tomorrow I'll show you what these sketches ended up becoming. </p>",
"height": 600,
"width": 800,
"likes_count": 0,
"comments_count": 0,
"rebounds_count": 0,
"url": "http://dribbble.com/shots/1810621-App-Sketches",
"short_url": "http://drbl.in/mTFH",
"views_count": 18,
"rebound_source_id": null,
"image_url": "https://d13yacurqjgara.cloudfront.net/users/565/screenshots/1810621/blossom_app_sketch_joshhemsley.jpg",
"image_teaser_url": "https://d13yacurqjgara.cloudfront.net/users/565/screenshots/1810621/blossom_app_sketch_joshhemsley_teaser.jpg",
"image_400_url": "https://d13yacurqjgara.cloudfront.net/users/565/screenshots/1810621/blossom_app_sketch_joshhemsley_1x.jpg",
"player": {
"id": 565,
"name": "Josh Hemsley",
"location": "Orange County, CA",
"followers_count": 21872,
"draftees_count": 25,
"likes_count": 3048,
"likes_received_count": 41265,
"comments_count": 848,
"comments_received_count": 2903,
"rebounds_count": 29,
"rebounds_received_count": 26,
"url": "http://dribbble.com/joshhemsley",
"avatar_url": "https://d13yacurqjgara.cloudfront.net/users/565/avatars/normal/Josh_Hemsley.jpeg?1383935226",
"username": "joshhemsley",
"twitter_screen_name": "joshhemsley",
"website_url": "http://joshhemsley.com",
"drafted_by_player_id": 263,
"shots_count": 198,
"following_count": 384,
"created_at": "2010/01/19 10:14:13 -0500"
},
"created_at": "2014/11/16 20:08:44 -0500"
},
{
"id": 1810620,
"title": "Odelay",
"description": "<p>Working on a little something for <a href=\"https://dribbble.com/strongodors\" rel=\"nofollow\">Troy DeShano</a>.</p>",
"height": 600,
"width": 800,
"likes_count": 1,
"comments_count": 0,
"rebounds_count": 0,
"url": "http://dribbble.com/shots/1810620-Odelay",
"short_url": "http://drbl.in/mTFG",
"views_count": 1,
"rebound_source_id": null,
"image_url": "https://d13yacurqjgara.cloudfront.net/users/56251/screenshots/1810620/odelay.jpg",
"image_teaser_url": "https://d13yacurqjgara.cloudfront.net/users/56251/screenshots/1810620/odelay_teaser.jpg",
"image_400_url": "https://d13yacurqjgara.cloudfront.net/users/56251/screenshots/1810620/odelay_1x.jpg",
"player": {
"id": 56251,
"name": "Noah Jacobus",
"location": "Lexington, KY",
"followers_count": 535,
"draftees_count": 9,
"likes_count": 1745,
"likes_received_count": 2315,
"comments_count": 333,
"comments_received_count": 233,
"rebounds_count": 45,
"rebounds_received_count": 44,
"url": "http://dribbble.com/noahjacobus",
"avatar_url": "https://d13yacurqjgara.cloudfront.net/users/56251/avatars/normal/3f36793c37e90dd43c58034bd6afc86e.png?1414076277",
"username": "noahjacobus",
"twitter_screen_name": "Jabronus",
"website_url": "http://noahjacob.us",
"drafted_by_player_id": 44006,
"shots_count": 140,
"following_count": 271,
"created_at": "2011/08/22 22:43:02 -0400"
},
"created_at": "2014/11/16 20:07:16 -0500"
},
{
"id": 1810619,
"title": "UnderCover Colors ",
"description": "<p>The concept branding of a new nailpolish that detects date rape drugs called 'Undercover Colors'. </p>\n\n<p>Click here to see more: https://www.behance.net/gallery/19596235/Undercover-Colors</p>",
"height": 600,
"width": 800,
"likes_count": 2,
"comments_count": 0,
"rebounds_count": 0,
"url": "http://dribbble.com/shots/1810619-UnderCover-Colors",
"short_url": "http://drbl.in/mTFF",
"views_count": 2,
"rebound_source_id": null,
"image_url": "https://d13yacurqjgara.cloudfront.net/users/653500/screenshots/1810619/cover.jpg",
"image_teaser_url": "https://d13yacurqjgara.cloudfront.net/users/653500/screenshots/1810619/cover_teaser.jpg",
"image_400_url": "https://d13yacurqjgara.cloudfront.net/users/653500/screenshots/1810619/cover_1x.jpg",
"player": {
"id": 653500,
"name": "Nikita Gill",
"location": "London",
"followers_count": 6,
"draftees_count": 0,
"likes_count": 57,
"likes_received_count": 24,
"comments_count": 4,
"comments_received_count": 2,
"rebounds_count": 0,
"rebounds_received_count": 0,
"url": "http://dribbble.com/accidentalnut",
"avatar_url": "https://d13yacurqjgara.cloudfront.net/users/653500/avatars/normal/52aa91a34d2194c358b25b679cd6b851.jpg?1411074752",
"username": "accidentalnut",
"twitter_screen_name": "AnOddity21",
"website_url": "https://www.behance.net/nikitagill",
"drafted_by_player_id": 82369,
"shots_count": 2,
"following_count": 2,
"created_at": "2014/09/18 17:11:07 -0400"
},
"created_at": "2014/11/16 20:07:04 -0500"
},
{
"id": 1810618,
"title": "Pig mammoth ",
"description": "<p>Exploring the brushes feature in Adobe illustrator</p>",
"height": 600,
"width": 800,
"likes_count": 1,
"comments_count": 0,
"rebounds_count": 0,
"url": "http://dribbble.com/shots/1810618-Pig-mammoth",
"short_url": "http://drbl.in/mTFE",
"views_count": 2,
"rebound_source_id": null,
"image_url": "https://d13yacurqjgara.cloudfront.net/users/371963/screenshots/1810618/mammothd.png",
"image_teaser_url": "https://d13yacurqjgara.cloudfront.net/users/371963/screenshots/1810618/mammothd_teaser.png",
"image_400_url": "https://d13yacurqjgara.cloudfront.net/users/371963/screenshots/1810618/mammothd_1x.png",
"player": {
"id": 371963,
"name": "Yoav Daube",
"location": "Nyc",
"followers_count": 13,
"draftees_count": 0,
"likes_count": 33,
"likes_received_count": 103,
"comments_count": 3,
"comments_received_count": 14,
"rebounds_count": 1,
"rebounds_received_count": 1,
"url": "http://dribbble.com/daube",
"avatar_url": "https://d13yacurqjgara.cloudfront.net/users/371963/avatars/normal/avatar.jpg?1374410689",
"username": "daube",
"twitter_screen_name": null,
"website_url": "http://www.yoavdaube.com",
"drafted_by_player_id": 76860,
"shots_count": 12,
"following_count": 39,
"created_at": "2013/07/21 08:41:46 -0400"
},
"created_at": "2014/11/16 20:06:32 -0500"
},
{
"id": 1810617,
"title": "Photographer Portfolio - Mobile version ",
"description": "<p>Adapting portoflio web freelance photographer for the mobile version ...</p>\n\n<p>Visit my  <a href=\"https://www.behance.net/kikescalante\" rel=\"nofollow\"><strong>Behance</strong></a>  <a href=\"https://www.facebook.com/imkikescalante\" rel=\"nofollow\"><strong>Facebook</strong></a> <a href=\"https://www.kikescalante.com\" rel=\"nofollow\"><strong>Web</strong></a> </p>",
"height": 600,
"width": 800,
"likes_count": 0,
"comments_count": 0,
"rebounds_count": 0,
"url": "http://dribbble.com/shots/1810617-Photographer-Portfolio-Mobile-version",
"short_url": "http://drbl.in/mTFD",
"views_count": 29,
"rebound_source_id": 1788512,
"image_url": "https://d13yacurqjgara.cloudfront.net/users/238255/screenshots/1810617/sin_t_tulo-1.png",
"image_teaser_url": "https://d13yacurqjgara.cloudfront.net/users/238255/screenshots/1810617/sin_t_tulo-1_teaser.png",
"image_400_url": "https://d13yacurqjgara.cloudfront.net/users/238255/screenshots/1810617/sin_t_tulo-1_1x.png",
"player": {
"id": 238255,
"name": "Kike Escalante",
"location": "Alicante",
"followers_count": 129,
"draftees_count": 0,
"likes_count": 250,
"likes_received_count": 595,
"comments_count": 102,
"comments_received_count": 108,
"rebounds_count": 12,
"rebounds_received_count": 12,
"url": "http://dribbble.com/kikescalante",
"avatar_url": "https://d13yacurqjgara.cloudfront.net/users/238255/avatars/normal/b8cefa944318ed566b07f174c8123d63.jpg?1410364293",
"username": "kikescalante",
"twitter_screen_name": "kike_escalant",
"website_url": "https://www.kikescalante.com",
"drafted_by_player_id": 205916,
"shots_count": 40,
"following_count": 81,
"created_at": "2012/11/16 17:22:28 -0500"
},
"created_at": "2014/11/16 20:04:28 -0500"
},
{
"id": 1810615,
"title": "Buck the system",
"description": "<p>Just a little reminder doodle. </p>",
"height": 600,
"width": 800,
"likes_count": 2,
"comments_count": 0,
"rebounds_count": 0,
"url": "http://dribbble.com/shots/1810615-Buck-the-system",
"short_url": "http://drbl.in/mTFB",
"views_count": 4,
"rebound_source_id": null,
"image_url": "https://d13yacurqjgara.cloudfront.net/users/102503/screenshots/1810615/1530696_247363552092095_718150009_n.jpg",
"image_teaser_url": "https://d13yacurqjgara.cloudfront.net/users/102503/screenshots/1810615/1530696_247363552092095_718150009_n_teaser.jpg",
"image_400_url": "https://d13yacurqjgara.cloudfront.net/users/102503/screenshots/1810615/1530696_247363552092095_718150009_n_1x.jpg",
"player": {
"id": 102503,
"name": "Katie Kramer",
"location": "Lawrence, KS",
"followers_count": 28,
"draftees_count": 0,
"likes_count": 16,
"likes_received_count": 147,
"comments_count": 2,
"comments_received_count": 15,
"rebounds_count": 1,
"rebounds_received_count": 1,
"url": "http://dribbble.com/kratie",
"avatar_url": "https://d13yacurqjgara.cloudfront.net/users/102503/avatars/normal/f71172b96873f80bab9e36793b87abac.jpg?1416025436",
"username": "kratie",
"twitter_screen_name": "Kratie",
"website_url": "https://www.behance.net/katiekramer",
"drafted_by_player_id": 113996,
"shots_count": 9,
"following_count": 26,
"created_at": "2012/02/13 17:40:14 -0500"
},
"created_at": "2014/11/16 20:00:42 -0500"
},
{
"id": 1810614,
"title": "Sign up Flow",
"description": "<p>I would like to thank Cai Cardenas for letting me join the game. My debut shot is a sign up flow for a nutrition app I just finished. iPhone &amp; Android release within 24 hours. Enjoy!</p>",
"height": 600,
"width": 800,
"likes_count": 0,
"comments_count": 0,
"rebounds_count": 0,
"url": "http://dribbble.com/shots/1810614-Sign-up-Flow",
"short_url": "http://drbl.in/mTFA",
"views_count": 0,
"rebound_source_id": null,
"image_url": "https://d13yacurqjgara.cloudfront.net/users/162248/screenshots/1810614/dribbble-debut-shot.png",
"image_teaser_url": "https://d13yacurqjgara.cloudfront.net/users/162248/screenshots/1810614/dribbble-debut-shot_teaser.png",
"image_400_url": "https://d13yacurqjgara.cloudfront.net/users/162248/screenshots/1810614/dribbble-debut-shot_1x.png",
"player": {
"id": 162248,
"name": "Daan Schaart",
"location": "Amsterdam",
"followers_count": 6,
"draftees_count": 0,
"likes_count": 309,
"likes_received_count": 0,
"comments_count": 0,
"comments_received_count": 0,
"rebounds_count": 0,
"rebounds_received_count": 0,
"url": "http://dribbble.com/daanschaart",
"avatar_url": "https://d13yacurqjgara.cloudfront.net/users/162248/avatars/normal/IMG_9614_(Square).jpg?1403443115",
"username": "daanschaart",
"twitter_screen_name": "daanschaart",
"website_url": "http://www.daanschaart.nl/",
"drafted_by_player_id": 4708,
"shots_count": 1,
"following_count": 78,
"created_at": "2012/06/13 07:43:04 -0400"
},
"created_at": "2014/11/16 19:59:13 -0500"
},
{
"id": 1810612,
"title": "iPhone bits 3",
"description": "<p>Some more experiments in 3D</p>",
"height": 600,
"width": 800,
"likes_count": 2,
"comments_count": 0,
"rebounds_count": 0,
"url": "http://dribbble.com/shots/1810612-iPhone-bits-3",
"short_url": "http://drbl.in/mTFy",
"views_count": 10,
"rebound_source_id": null,
"image_url": "https://d13yacurqjgara.cloudfront.net/users/96362/screenshots/1810612/iphonebits3.gif",
"image_teaser_url": "https://d13yacurqjgara.cloudfront.net/users/96362/screenshots/1810612/iphonebits3_teaser.gif",
"image_400_url": "https://d13yacurqjgara.cloudfront.net/users/96362/screenshots/1810612/iphonebits3_1x.gif",
"player": {
"id": 96362,
"name": "Bushra Mahmood",
"location": "Austin, TX",
"followers_count": 781,
"draftees_count": 2,
"likes_count": 3016,
"likes_received_count": 3131,
"comments_count": 201,
"comments_received_count": 318,
"rebounds_count": 4,
"rebounds_received_count": 6,
"url": "http://dribbble.com/bushra",
"avatar_url": "https://d13yacurqjgara.cloudfront.net/users/96362/avatars/normal/headshot.jpg?1389371938",
"username": "bushra",
"twitter_screen_name": "goatsandbacon",
"website_url": "http://www.bushramahmood.com",
"drafted_by_player_id": 58708,
"shots_count": 97,
"following_count": 529,
"created_at": "2012/01/26 23:32:02 -0500"
},
"created_at": "2014/11/16 19:57:57 -0500"
},
{
"id": 1810611,
"title": "Dato",
"description": null,
"height": 600,
"width": 800,
"likes_count": 1,
"comments_count": 0,
"rebounds_count": 0,
"url": "http://dribbble.com/shots/1810611-Dato",
"short_url": "http://drbl.in/mTFx",
"views_count": 8,
"rebound_source_id": null,
"image_url": "https://d13yacurqjgara.cloudfront.net/users/18013/screenshots/1810611/datooo.png",
"image_teaser_url": "https://d13yacurqjgara.cloudfront.net/users/18013/screenshots/1810611/datooo_teaser.png",
"image_400_url": "https://d13yacurqjgara.cloudfront.net/users/18013/screenshots/1810611/datooo_1x.png",
"player": {
"id": 18013,
"name": "Vitaliy",
"location": "Saint-Petersburg",
"followers_count": 1078,
"draftees_count": 2,
"likes_count": 520,
"likes_received_count": 3038,
"comments_count": 30,
"comments_received_count": 254,
"rebounds_count": 8,
"rebounds_received_count": 8,
"url": "http://dribbble.com/jimme",
"avatar_url": "https://d13yacurqjgara.cloudfront.net/users/18013/avatars/normal/313219f98d884fae251056ef66813fd8.jpg?1413640148",
"username": "jimme",
"twitter_screen_name": "gisterson",
"website_url": "http://vk.com/jimme",
"drafted_by_player_id": 1529,
"shots_count": 83,
"following_count": 1798,
"created_at": "2011/02/14 06:48:06 -0500"
},
"created_at": "2014/11/16 19:57:42 -0500"
},
{
"id": 1810609,
"title": "Gramophone",
"description": null,
"height": 600,
"width": 800,
"likes_count": 2,
"comments_count": 0,
"rebounds_count": 0,
"url": "http://dribbble.com/shots/1810609-Gramophone",
"short_url": "http://drbl.in/mTFv",
"views_count": 5,
"rebound_source_id": null,
"image_url": "https://d13yacurqjgara.cloudfront.net/users/90297/screenshots/1810609/gramophone.png",
"image_teaser_url": "https://d13yacurqjgara.cloudfront.net/users/90297/screenshots/1810609/gramophone_teaser.png",
"image_400_url": "https://d13yacurqjgara.cloudfront.net/users/90297/screenshots/1810609/gramophone_1x.png",
"player": {
"id": 90297,
"name": "Stacia Burtis",
"location": "Minneapolis, MN",
"followers_count": 36,
"draftees_count": 0,
"likes_count": 4,
"likes_received_count": 112,
"comments_count": 1,
"comments_received_count": 7,
"rebounds_count": 0,
"rebounds_received_count": 0,
"url": "http://dribbble.com/staciaburtis",
"avatar_url": "https://d13yacurqjgara.cloudfront.net/users/90297/avatars/normal/profpic.png?1404884939",
"username": "staciaburtis",
"twitter_screen_name": "staciaburtis",
"website_url": null,
"drafted_by_player_id": 313131,
"shots_count": 8,
"following_count": 83,
"created_at": "2012/01/08 21:46:37 -0500"
},
"created_at": "2014/11/16 19:56:54 -0500"
},
{
"id": 1810607,
"title": "The Hut",
"description": null,
"height": 300,
"width": 400,
"likes_count": 1,
"comments_count": 0,
"rebounds_count": 0,
"url": "http://dribbble.com/shots/1810607-The-Hut",
"short_url": "http://drbl.in/mTFt",
"views_count": 3,
"rebound_source_id": null,
"image_url": "https://d13yacurqjgara.cloudfront.net/users/398818/screenshots/1810607/the-hut_ben-biondo.png",
"image_teaser_url": "https://d13yacurqjgara.cloudfront.net/users/398818/screenshots/1810607/the-hut_ben-biondo_teaser.png",
"player": {
"id": 398818,
"name": "Ben Biondo",
"location": "Newport Beach, CA",
"followers_count": 132,
"draftees_count": 0,
"likes_count": 2,
"likes_received_count": 576,
"comments_count": 4,
"comments_received_count": 34,
"rebounds_count": 0,
"rebounds_received_count": 0,
"url": "http://dribbble.com/BenBiondo",
"avatar_url": "https://d13yacurqjgara.cloudfront.net/users/398818/avatars/normal/Eyes-03_Ben-Biondo.jpg?1404425683",
"username": "BenBiondo",
"twitter_screen_name": "benbiondo",
"website_url": "http://benbiondo.com",
"drafted_by_player_id": 122952,
"shots_count": 74,
"following_count": 84,
"created_at": "2013/09/05 15:47:35 -0400"
},
"created_at": "2014/11/16 19:55:27 -0500"
},
{
"id": 1810604,
"title": "Coffee Jar",
"description": "<p>Hashing out different type lockups for a little something special.</p>",
"height": 600,
"width": 800,
"likes_count": 2,
"comments_count": 0,
"rebounds_count": 0,
"url": "http://dribbble.com/shots/1810604-Coffee-Jar",
"short_url": "http://drbl.in/mTFq",
"views_count": 6,
"rebound_source_id": null,
"image_url": "https://d13yacurqjgara.cloudfront.net/users/143885/screenshots/1810604/terracotta.jpg",
"image_teaser_url": "https://d13yacurqjgara.cloudfront.net/users/143885/screenshots/1810604/terracotta_teaser.jpg",
"image_400_url": "https://d13yacurqjgara.cloudfront.net/users/143885/screenshots/1810604/terracotta_1x.jpg",
"player": {
"id": 143885,
"name": "Matthew Paul",
"location": "Austin, TX",
"followers_count": 150,
"draftees_count": 0,
"likes_count": 1122,
"likes_received_count": 411,
"comments_count": 40,
"comments_received_count": 46,
"rebounds_count": 1,
"rebounds_received_count": 1,
"url": "http://dribbble.com/matthewcpaul",
"avatar_url": "https://d13yacurqjgara.cloudfront.net/users/143885/avatars/normal/2eaa577a6c042fdeaa951ee38b4a1518.jpg?1408678368",
"username": "matthewcpaul",
"twitter_screen_name": "matthewcpaul",
"website_url": "http://matthewcpaul.com",
"drafted_by_player_id": 227808,
"shots_count": 37,
"following_count": 333,
"created_at": "2012/05/08 01:26:43 -0400"
},
"created_at": "2014/11/16 19:53:20 -0500"
},
{
"id": 1810603,
"title": "Dolphin Cain",
"description": null,
"height": 600,
"width": 800,
"likes_count": 2,
"comments_count": 0,
"rebounds_count": 0,
"url": "http://dribbble.com/shots/1810603-Dolphin-Cain",
"short_url": "http://drbl.in/mTFp",
"views_count": 3,
"rebound_source_id": null,
"image_url": "https://d13yacurqjgara.cloudfront.net/users/96944/screenshots/1810603/dolphincain.png",
"image_teaser_url": "https://d13yacurqjgara.cloudfront.net/users/96944/screenshots/1810603/dolphincain_teaser.png",
"image_400_url": "https://d13yacurqjgara.cloudfront.net/users/96944/screenshots/1810603/dolphincain_1x.png",
"player": {
"id": 96944,
"name": "Jupiter Visual",
"location": "Boulder, CO",
"followers_count": 192,
"draftees_count": 2,
"likes_count": 636,
"likes_received_count": 1018,
"comments_count": 82,
"comments_received_count": 98,
"rebounds_count": 18,
"rebounds_received_count": 19,
"url": "http://dribbble.com/JupiterVisual",
"avatar_url": "https://d13yacurqjgara.cloudfront.net/users/96944/avatars/normal/4b69f9344d3b3deedbb5807c6476529e.png?1411793542",
"username": "JupiterVisual",
"twitter_screen_name": "JupiterVisual",
"website_url": "http://jupitervisual.com",
"drafted_by_player_id": 59168,
"shots_count": 101,
"following_count": 276,
"created_at": "2012/01/29 02:35:19 -0500"
},
"created_at": "2014/11/16 19:51:09 -0500"
},
{
"id": 1810602,
"title": "Portal design",
"description": null,
"height": 600,
"width": 800,
"likes_count": 4,
"comments_count": 0,
"rebounds_count": 0,
"url": "http://dribbble.com/shots/1810602-Portal-design",
"short_url": "http://drbl.in/mTFo",
"views_count": 17,
"rebound_source_id": null,
"image_url": "https://d13yacurqjgara.cloudfront.net/users/459944/screenshots/1810602/portal_800_600.png",
"image_teaser_url": "https://d13yacurqjgara.cloudfront.net/users/459944/screenshots/1810602/portal_800_600_teaser.png",
"image_400_url": "https://d13yacurqjgara.cloudfront.net/users/459944/screenshots/1810602/portal_800_600_1x.png",
"player": {
"id": 459944,
"name": "Gary Reverol",
"location": "San Francisco",
"followers_count": 9,
"draftees_count": 0,
"likes_count": 3,
"likes_received_count": 83,
"comments_count": 1,
"comments_received_count": 10,
"rebounds_count": 1,
"rebounds_received_count": 1,
"url": "http://dribbble.com/garyreverol",
"avatar_url": "https://d13yacurqjgara.cloudfront.net/users/459944/avatars/normal/gr_circle_photo.png?1386833263",
"username": "garyreverol",
"twitter_screen_name": null,
"website_url": "http://behance.net/garyreverol",
"drafted_by_player_id": 39,
"shots_count": 10,
"following_count": 37,
"created_at": "2013/12/12 02:26:43 -0500"
},
"created_at": "2014/11/16 19:50:06 -0500"
}
]
}
)
