JSON_CALLBACK (
{
"page": "1",
"per_page": 15,
"pages": 50,
"total": 750,
"shots": [
{
"id": 1809384,
"title": "Musik App",
"description": "<p>Hi guys,</p>\n\n<p>So here is a personal project I've been working on for a while now. Hopefully the landing page will speak for itself. Anyway, I hope you like. I've attached the <a href=\"https://dribbble.com/shots/1809384-Musik-App/attachments/299096\" rel=\"nofollow\">full size</a>.</p>\n\n<p><a href=\"http://twitter.com/aasananes\" rel=\"nofollow\">Twitter</a>.</p>",
"height": 600,
"width": 800,
"likes_count": 278,
"comments_count": 17,
"rebounds_count": 0,
"url": "http://dribbble.com/shots/1809384-Musik-App",
"short_url": "http://drbl.in/mThS",
"views_count": 4921,
"rebound_source_id": null,
"image_url": "https://d13yacurqjgara.cloudfront.net/users/66124/screenshots/1809384/dribbble-musik.png",
"image_teaser_url": "https://d13yacurqjgara.cloudfront.net/users/66124/screenshots/1809384/dribbble-musik_teaser.png",
"image_400_url": "https://d13yacurqjgara.cloudfront.net/users/66124/screenshots/1809384/dribbble-musik_1x.png",
"player": {
"id": 66124,
"name": "Aaron Sananes",
"location": "Manchester, UK",
"followers_count": 2552,
"draftees_count": 4,
"likes_count": 3561,
"likes_received_count": 9286,
"comments_count": 408,
"comments_received_count": 551,
"rebounds_count": 15,
"rebounds_received_count": 18,
"url": "http://dribbble.com/sananes",
"avatar_url": "https://d13yacurqjgara.cloudfront.net/users/66124/avatars/normal/aaron.retro.cropped.more.jpg?1377789536",
"username": "sananes",
"twitter_screen_name": "aasananes",
"website_url": "http://sananes.co",
"drafted_by_player_id": 21845,
"shots_count": 73,
"following_count": 199,
"created_at": "2011/10/04 12:36:40 -0400"
},
"created_at": "2014/11/15 05:14:51 -0500"
},
{
"id": 1809720,
"title": "Material Design",
"description": "<p>Bacause lollipops</p>",
"height": 600,
"width": 800,
"likes_count": 192,
"comments_count": 7,
"rebounds_count": 0,
"url": "http://dribbble.com/shots/1809720-Material-Design",
"short_url": "http://drbl.in/mToq",
"views_count": 2975,
"rebound_source_id": null,
"image_url": "https://d13yacurqjgara.cloudfront.net/users/397346/screenshots/1809720/2.gif",
"image_teaser_url": "https://d13yacurqjgara.cloudfront.net/users/397346/screenshots/1809720/2_teaser.gif",
"image_400_url": "https://d13yacurqjgara.cloudfront.net/users/397346/screenshots/1809720/2_1x.gif",
"player": {
"id": 397346,
"name": "Jokūbas",
"location": "Everywhere",
"followers_count": 1854,
"draftees_count": 4,
"likes_count": 2216,
"likes_received_count": 7172,
"comments_count": 74,
"comments_received_count": 343,
"rebounds_count": 1,
"rebounds_received_count": 1,
"url": "http://dribbble.com/Graphframe",
"avatar_url": "https://d13yacurqjgara.cloudfront.net/users/397346/avatars/normal/885c587d654c7d30d524d375a53c1824.png?1408304449",
"username": "Graphframe",
"twitter_screen_name": "Graphframe",
"website_url": "http://graphfra.me",
"drafted_by_player_id": 422657,
"shots_count": 46,
"following_count": 221,
"created_at": "2013/09/03 13:51:23 -0400"
},
"created_at": "2014/11/15 14:24:28 -0500"
},
{
"id": 1809363,
"title": "Nature",
"description": null,
"height": 600,
"width": 800,
"likes_count": 167,
"comments_count": 13,
"rebounds_count": 0,
"url": "http://dribbble.com/shots/1809363-Nature",
"short_url": "http://drbl.in/mThx",
"views_count": 1269,
"rebound_source_id": null,
"image_url": "https://d13yacurqjgara.cloudfront.net/users/69311/screenshots/1809363/floral-pattern.jpg",
"image_teaser_url": "https://d13yacurqjgara.cloudfront.net/users/69311/screenshots/1809363/floral-pattern_teaser.jpg",
"image_400_url": "https://d13yacurqjgara.cloudfront.net/users/69311/screenshots/1809363/floral-pattern_1x.jpg",
"player": {
"id": 69311,
"name": "Nathan Yoder",
"location": "Portland, OR",
"followers_count": 5700,
"draftees_count": 4,
"likes_count": 1348,
"likes_received_count": 33002,
"comments_count": 759,
"comments_received_count": 2453,
"rebounds_count": 34,
"rebounds_received_count": 33,
"url": "http://dribbble.com/nathanyoder",
"avatar_url": "https://d13yacurqjgara.cloudfront.net/users/69311/avatars/normal/Yondr_Studio_Primary_Logo_copy.jpg?1399448956",
"username": "nathanyoder",
"twitter_screen_name": "nathanyoder",
"website_url": "http://yondrstudio.com",
"drafted_by_player_id": 69259,
"shots_count": 268,
"following_count": 276,
"created_at": "2011/10/18 16:35:55 -0400"
},
"created_at": "2014/11/15 03:24:34 -0500"
},
{
"id": 1809395,
"title": "Audi R8 Brochure",
"description": "<p>Audi R8 Brochure (Concept) </p>\n\n<p>The start of a fun self initiated project to bring the Audi brochure design up to date and much more creativity influenced. </p>\n\n<p>The R8 is a thing of beauty and my aim is to design a brochure that will compliment it!</p>\n\n<p>(X2 attached)</p>\n\n<p>Follow my process here:\n<br />https://www.behance.net/wip/849033/1542097</p>\n\n<p>STUDIOJQ Do not own the rights to any of the images used.\n<br />Designed at STUDIOJQ©</p>",
"height": 600,
"width": 800,
"likes_count": 125,
"comments_count": 13,
"rebounds_count": 1,
"url": "http://dribbble.com/shots/1809395-Audi-R8-Brochure",
"short_url": "http://drbl.in/mTid",
"views_count": 2139,
"rebound_source_id": null,
"image_url": "https://d13yacurqjgara.cloudfront.net/users/43342/screenshots/1809395/cover6.jpg",
"image_teaser_url": "https://d13yacurqjgara.cloudfront.net/users/43342/screenshots/1809395/cover6_teaser.jpg",
"image_400_url": "https://d13yacurqjgara.cloudfront.net/users/43342/screenshots/1809395/cover6_1x.jpg",
"player": {
"id": 43342,
"name": "Jonathan Quintin",
"location": "Bristol, UK",
"followers_count": 10094,
"draftees_count": 13,
"likes_count": 5857,
"likes_received_count": 65833,
"comments_count": 2085,
"comments_received_count": 3544,
"rebounds_count": 493,
"rebounds_received_count": 526,
"url": "http://dribbble.com/STUDIOJQ",
"avatar_url": "https://d13yacurqjgara.cloudfront.net/users/43342/avatars/normal/f063240120f0ed88b5bdaae62f92c9de.png?1408797326",
"username": "STUDIOJQ",
"twitter_screen_name": "STUDIOJQ",
"website_url": "http://www.behance.net/JonathanQuintin",
"drafted_by_player_id": 5675,
"shots_count": 788,
"following_count": 1799,
"created_at": "2011/07/02 07:00:51 -0400"
},
"created_at": "2014/11/15 05:33:53 -0500"
},
{
"id": 1809650,
"title": "EB Advertising",
"description": "<p>Finalized a brand case for Einar &amp; Bert, larger image attached. View the full project on Behance: \n<br />http://bit.ly/1wEOAPw</p>",
"height": 600,
"width": 800,
"likes_count": 116,
"comments_count": 5,
"rebounds_count": 0,
"url": "http://dribbble.com/shots/1809650-EB-Advertising",
"short_url": "http://drbl.in/mTmY",
"views_count": 1325,
"rebound_source_id": null,
"image_url": "https://d13yacurqjgara.cloudfront.net/users/78594/screenshots/1809650/800.png",
"image_teaser_url": "https://d13yacurqjgara.cloudfront.net/users/78594/screenshots/1809650/800_teaser.png",
"image_400_url": "https://d13yacurqjgara.cloudfront.net/users/78594/screenshots/1809650/800_1x.png",
"player": {
"id": 78594,
"name": "Jonas",
"location": "Berlin",
"followers_count": 8407,
"draftees_count": 9,
"likes_count": 46281,
"likes_received_count": 34784,
"comments_count": 1858,
"comments_received_count": 2366,
"rebounds_count": 13,
"rebounds_received_count": 40,
"url": "http://dribbble.com/jonassoeder",
"avatar_url": "https://d13yacurqjgara.cloudfront.net/users/78594/avatars/normal/13818d814260f314904df93b3fe9d9a4.png?1414506778",
"username": "jonassoeder",
"twitter_screen_name": "jonassoeder",
"website_url": "http://www.jonassoeder.de",
"drafted_by_player_id": 31081,
"shots_count": 152,
"following_count": 966,
"created_at": "2011/11/25 04:39:38 -0500"
},
"created_at": "2014/11/15 12:43:54 -0500"
},
{
"id": 1809802,
"title": "WFW",
"description": "<p>Seems like many of you enjoyed this design, so it put it nicely for you here :)</p>",
"height": 600,
"width": 800,
"likes_count": 103,
"comments_count": 5,
"rebounds_count": 0,
"url": "http://dribbble.com/shots/1809802-WFW",
"short_url": "http://drbl.in/mTpU",
"views_count": 834,
"rebound_source_id": null,
"image_url": "https://d13yacurqjgara.cloudfront.net/users/221182/screenshots/1809802/untitled-1.png",
"image_teaser_url": "https://d13yacurqjgara.cloudfront.net/users/221182/screenshots/1809802/untitled-1_teaser.png",
"image_400_url": "https://d13yacurqjgara.cloudfront.net/users/221182/screenshots/1809802/untitled-1_1x.png",
"player": {
"id": 221182,
"name": "Jorgen Grotdal",
"location": "Trondheim, Norway",
"followers_count": 4839,
"draftees_count": 0,
"likes_count": 648,
"likes_received_count": 25083,
"comments_count": 324,
"comments_received_count": 1552,
"rebounds_count": 0,
"rebounds_received_count": 3,
"url": "http://dribbble.com/JorgenGrotdal",
"avatar_url": "https://d13yacurqjgara.cloudfront.net/users/221182/avatars/normal/666.png?1392655504",
"username": "JorgenGrotdal",
"twitter_screen_name": "JorgenGrotdal",
"website_url": "http://jorgengrotdal.com/",
"drafted_by_player_id": 169979,
"shots_count": 257,
"following_count": 294,
"created_at": "2012/10/13 20:04:12 -0400"
},
"created_at": "2014/11/15 16:55:30 -0500"
},
{
"id": 1810225,
"title": "App Miss Index Design",
"description": "<p>One app I working now~Hope you like it~</p>",
"height": 600,
"width": 800,
"likes_count": 111,
"comments_count": 6,
"rebounds_count": 0,
"url": "http://dribbble.com/shots/1810225-App-Miss-Index-Design",
"short_url": "http://drbl.in/mTyb",
"views_count": 960,
"rebound_source_id": null,
"image_url": "https://d13yacurqjgara.cloudfront.net/users/338896/screenshots/1810225/app-miss-index-design.png",
"image_teaser_url": "https://d13yacurqjgara.cloudfront.net/users/338896/screenshots/1810225/app-miss-index-design_teaser.png",
"image_400_url": "https://d13yacurqjgara.cloudfront.net/users/338896/screenshots/1810225/app-miss-index-design_1x.png",
"player": {
"id": 338896,
"name": "baiheng",
"location": "China beijing",
"followers_count": 383,
"draftees_count": 2,
"likes_count": 374,
"likes_received_count": 1658,
"comments_count": 75,
"comments_received_count": 154,
"rebounds_count": 0,
"rebounds_received_count": 0,
"url": "http://dribbble.com/baiheng",
"avatar_url": "https://d13yacurqjgara.cloudfront.net/users/338896/avatars/normal/logosdsdsd.png?1398444346",
"username": "baiheng",
"twitter_screen_name": "BaihengGokey",
"website_url": "http://espuma.lofter.com/",
"drafted_by_player_id": 524037,
"shots_count": 20,
"following_count": 271,
"created_at": "2013/05/24 08:22:08 -0400"
},
"created_at": "2014/11/16 09:33:03 -0500"
},
{
"id": 1809315,
"title": "Business & Beauty Design",
"description": "<p>Another redesigned version of my previous theme. </p>\n\n<p>Check the <a href=\"https://dribbble.com/shots/1809315-Business-Beauty-Design/attachments/299113\" rel=\"nofollow\">Real Pixel Attached!</a></p>",
"height": 600,
"width": 800,
"likes_count": 121,
"comments_count": 17,
"rebounds_count": 0,
"url": "http://dribbble.com/shots/1809315-Business-Beauty-Design",
"short_url": "http://drbl.in/mTgB",
"views_count": 2634,
"rebound_source_id": 1780143,
"image_url": "https://d13yacurqjgara.cloudfront.net/users/272493/screenshots/1809315/dribbble.png",
"image_teaser_url": "https://d13yacurqjgara.cloudfront.net/users/272493/screenshots/1809315/dribbble_teaser.png",
"image_400_url": "https://d13yacurqjgara.cloudfront.net/users/272493/screenshots/1809315/dribbble_1x.png",
"player": {
"id": 272493,
"name": "Masum Rana ",
"location": "Dhaka, Bangladesh",
"followers_count": 736,
"draftees_count": 7,
"likes_count": 2469,
"likes_received_count": 1612,
"comments_count": 1513,
"comments_received_count": 261,
"rebounds_count": 2,
"rebounds_received_count": 3,
"url": "http://dribbble.com/hashirraja",
"avatar_url": "https://d13yacurqjgara.cloudfront.net/users/272493/avatars/normal/e5f764b33d1c33579aa5c90c691f7591.jpg?1407690711",
"username": "hashirraja",
"twitter_screen_name": "masumrana266",
"website_url": "http://themeforest.net/user/one_touch/portfolio",
"drafted_by_player_id": 87643,
"shots_count": 16,
"following_count": 370,
"created_at": "2013/01/28 09:41:21 -0500"
},
"created_at": "2014/11/15 01:19:50 -0500"
},
{
"id": 1809612,
"title": "Road Warrior",
"description": "<p>Here's another new truck I'm working on. </p>",
"height": 600,
"width": 800,
"likes_count": 87,
"comments_count": 7,
"rebounds_count": 0,
"url": "http://dribbble.com/shots/1809612-Road-Warrior",
"short_url": "http://drbl.in/mTmm",
"views_count": 771,
"rebound_source_id": 1809571,
"image_url": "https://d13yacurqjgara.cloudfront.net/users/11867/screenshots/1809612/roadwarrior.jpg",
"image_teaser_url": "https://d13yacurqjgara.cloudfront.net/users/11867/screenshots/1809612/roadwarrior_teaser.jpg",
"image_400_url": "https://d13yacurqjgara.cloudfront.net/users/11867/screenshots/1809612/roadwarrior_1x.jpg",
"player": {
"id": 11867,
"name": "Timothy J. Reynolds",
"location": "Milwaukee, WI",
"followers_count": 17316,
"draftees_count": 14,
"likes_count": 23863,
"likes_received_count": 77380,
"comments_count": 3367,
"comments_received_count": 5255,
"rebounds_count": 126,
"rebounds_received_count": 124,
"url": "http://dribbble.com/turnislefthome",
"avatar_url": "https://d13yacurqjgara.cloudfront.net/users/11867/avatars/normal/500.jpg?1381772636",
"username": "turnislefthome",
"twitter_screen_name": "turnislefthome",
"website_url": "http://www.turnislefthome.com",
"drafted_by_player_id": 25844,
"shots_count": 400,
"following_count": 609,
"created_at": "2011/01/18 15:51:51 -0500"
},
"created_at": "2014/11/15 12:01:34 -0500"
},
{
"id": 1810209,
"title": "Simple Fire",
"description": null,
"height": 600,
"width": 800,
"likes_count": 93,
"comments_count": 5,
"rebounds_count": 0,
"url": "http://dribbble.com/shots/1810209-Simple-Fire",
"short_url": "http://drbl.in/mTxL",
"views_count": 951,
"rebound_source_id": null,
"image_url": "https://d13yacurqjgara.cloudfront.net/users/60166/screenshots/1810209/little_fire_logo.jpg",
"image_teaser_url": "https://d13yacurqjgara.cloudfront.net/users/60166/screenshots/1810209/little_fire_logo_teaser.jpg",
"image_400_url": "https://d13yacurqjgara.cloudfront.net/users/60166/screenshots/1810209/little_fire_logo_1x.jpg",
"player": {
"id": 60166,
"name": "Yoga Perdana",
"location": "Indonesia",
"followers_count": 14691,
"draftees_count": 5,
"likes_count": 8614,
"likes_received_count": 52819,
"comments_count": 1911,
"comments_received_count": 2247,
"rebounds_count": 4,
"rebounds_received_count": 14,
"url": "http://dribbble.com/yoga",
"avatar_url": "https://d13yacurqjgara.cloudfront.net/users/60166/avatars/normal/yogaLogo.png?1390870645",
"username": "yoga",
"twitter_screen_name": "yoga7",
"website_url": "http://yogaportfolio.tumblr.com",
"drafted_by_player_id": 32388,
"shots_count": 121,
"following_count": 1102,
"created_at": "2011/09/07 07:10:00 -0400"
},
"created_at": "2014/11/16 09:12:23 -0500"
},
{
"id": 1810113,
"title": "Schnaps Bottle Labels ...",
"description": "<p>... »schnaps« bottle labels. I made them for my Bosnian friend and supplier of homemade fruit schnaps (plum, apple and pear).</p>\n\n<p>domaća = homemade\n<br />rakija = a strong distilled alcoholic beverage made of fruit\n<br />šljiva = plum\n<br />jabuka = apple\n<br />kruška = pear\n</p>",
"height": 600,
"width": 800,
"likes_count": 75,
"comments_count": 15,
"rebounds_count": 0,
"url": "http://dribbble.com/shots/1810113-Schnaps-Bottle-Labels",
"short_url": "http://drbl.in/mTvT",
"views_count": 466,
"rebound_source_id": null,
"image_url": "https://d13yacurqjgara.cloudfront.net/users/14765/screenshots/1810113/schnaps-bottle-labels-....png",
"image_teaser_url": "https://d13yacurqjgara.cloudfront.net/users/14765/screenshots/1810113/schnaps-bottle-labels-..._teaser.png",
"image_400_url": "https://d13yacurqjgara.cloudfront.net/users/14765/screenshots/1810113/schnaps-bottle-labels-..._1x.png",
"player": {
"id": 14765,
"name": "Arno Kathollnig",
"location": "Villach, Austria",
"followers_count": 5743,
"draftees_count": 8,
"likes_count": 89565,
"likes_received_count": 41086,
"comments_count": 4594,
"comments_received_count": 6123,
"rebounds_count": 20,
"rebounds_received_count": 20,
"url": "http://dribbble.com/arnoKath",
"avatar_url": "https://d13yacurqjgara.cloudfront.net/users/14765/avatars/normal/ak_drib_ava.png?1389894523",
"username": "arnoKath",
"twitter_screen_name": "arnoKath",
"website_url": "http://www.typoatelier.com",
"drafted_by_player_id": 7288,
"shots_count": 276,
"following_count": 1387,
"created_at": "2011/01/30 11:35:14 -0500"
},
"created_at": "2014/11/16 06:02:41 -0500"
},
{
"id": 1809565,
"title": "Personal car loan application",
"description": "<p>Personal car loan application dashboard.</p>",
"height": 600,
"width": 800,
"likes_count": 86,
"comments_count": 2,
"rebounds_count": 0,
"url": "http://dribbble.com/shots/1809565-Personal-car-loan-application",
"short_url": "http://drbl.in/mTlr",
"views_count": 1415,
"rebound_source_id": null,
"image_url": "https://d13yacurqjgara.cloudfront.net/users/43340/screenshots/1809565/ss.jpg",
"image_teaser_url": "https://d13yacurqjgara.cloudfront.net/users/43340/screenshots/1809565/ss_teaser.jpg",
"image_400_url": "https://d13yacurqjgara.cloudfront.net/users/43340/screenshots/1809565/ss_1x.jpg",
"player": {
"id": 43340,
"name": "Murat Gürsoy",
"location": "Istanbul, Turkey",
"followers_count": 300,
"draftees_count": 1,
"likes_count": 1247,
"likes_received_count": 847,
"comments_count": 51,
"comments_received_count": 80,
"rebounds_count": 0,
"rebounds_received_count": 0,
"url": "http://dribbble.com/MuratGursoy",
"avatar_url": "https://d13yacurqjgara.cloudfront.net/users/43340/avatars/normal/avatar.png?1361645961",
"username": "MuratGursoy",
"twitter_screen_name": "Murat_Gursoyy",
"website_url": "https://dribbble.com/Happylabs",
"drafted_by_player_id": 19461,
"shots_count": 20,
"following_count": 142,
"created_at": "2011/07/02 06:28:16 -0400"
},
"created_at": "2014/11/15 11:13:45 -0500"
},
{
"id": 1810061,
"title": "Flash",
"description": "<p>O, hey. It's my first shot. I hope you like it.</p>",
"height": 300,
"width": 400,
"likes_count": 67,
"comments_count": 14,
"rebounds_count": 0,
"url": "http://dribbble.com/shots/1810061-Flash",
"short_url": "http://drbl.in/mTuT",
"views_count": 727,
"rebound_source_id": null,
"image_url": "https://d13yacurqjgara.cloudfront.net/users/189524/screenshots/1810061/01-clean400x300-6.gif",
"image_teaser_url": "https://d13yacurqjgara.cloudfront.net/users/189524/screenshots/1810061/01-clean400x300-6_teaser.gif",
"player": {
"id": 189524,
"name": "Tony Pinkevich",
"location": "Ukraine",
"followers_count": 17,
"draftees_count": 0,
"likes_count": 55,
"likes_received_count": 84,
"comments_count": 3,
"comments_received_count": 19,
"rebounds_count": 0,
"rebounds_received_count": 0,
"url": "http://dribbble.com/Tniich",
"avatar_url": "https://d13yacurqjgara.cloudfront.net/users/189524/avatars/normal/1d2ef9a110242c8d4a5571acfc1dd355.png?1416148925",
"username": "Tniich",
"twitter_screen_name": null,
"website_url": "http://tniich.com",
"drafted_by_player_id": 599702,
"shots_count": 2,
"following_count": 15,
"created_at": "2012/08/10 10:37:20 -0400"
},
"created_at": "2014/11/16 03:55:00 -0500"
},
{
"id": 1809571,
"title": "Squishy Vehicles",
"description": "<p>Updated my <a href=\"https://www.behance.net/gallery/11915049/Low-Poly-Vehicles%0D%0A\" rel=\"nofollow\">'Vehicles' set</a> with these little squeakers. </p>\n\n<p></p>",
"height": 600,
"width": 800,
"likes_count": 59,
"comments_count": 2,
"rebounds_count": 1,
"url": "http://dribbble.com/shots/1809571-Squishy-Vehicles",
"short_url": "http://drbl.in/mTlx",
"views_count": 546,
"rebound_source_id": null,
"image_url": "https://d13yacurqjgara.cloudfront.net/users/11867/screenshots/1809571/squishy.jpg",
"image_teaser_url": "https://d13yacurqjgara.cloudfront.net/users/11867/screenshots/1809571/squishy_teaser.jpg",
"image_400_url": "https://d13yacurqjgara.cloudfront.net/users/11867/screenshots/1809571/squishy_1x.jpg",
"player": {
"id": 11867,
"name": "Timothy J. Reynolds",
"location": "Milwaukee, WI",
"followers_count": 17316,
"draftees_count": 14,
"likes_count": 23863,
"likes_received_count": 77380,
"comments_count": 3367,
"comments_received_count": 5255,
"rebounds_count": 126,
"rebounds_received_count": 124,
"url": "http://dribbble.com/turnislefthome",
"avatar_url": "https://d13yacurqjgara.cloudfront.net/users/11867/avatars/normal/500.jpg?1381772636",
"username": "turnislefthome",
"twitter_screen_name": "turnislefthome",
"website_url": "http://www.turnislefthome.com",
"drafted_by_player_id": 25844,
"shots_count": 400,
"following_count": 609,
"created_at": "2011/01/18 15:51:51 -0500"
},
"created_at": "2014/11/15 11:29:38 -0500"
},
{
"id": 1809369,
"title": "Wordpress theme landing page",
"description": "<p>Also check the <a href=\"https://dribbble.com/shots/1809369-Wordpress-theme-landing-page/attachments/299090\" rel=\"nofollow\">attached real pixels</a>. Feedbacks are welcome, thanks!</p>\n\n<p>Say hi on Twitter <a href=\"https://twitter.com/pixedelic/\" rel=\"nofollow\">@pixedelic</a></p>",
"height": 600,
"width": 800,
"likes_count": 83,
"comments_count": 8,
"rebounds_count": 0,
"url": "http://dribbble.com/shots/1809369-Wordpress-theme-landing-page",
"short_url": "http://drbl.in/mThD",
"views_count": 1438,
"rebound_source_id": 1807138,
"image_url": "https://d13yacurqjgara.cloudfront.net/users/57399/screenshots/1809369/hilite-framework-home1.png",
"image_teaser_url": "https://d13yacurqjgara.cloudfront.net/users/57399/screenshots/1809369/hilite-framework-home1_teaser.png",
"image_400_url": "https://d13yacurqjgara.cloudfront.net/users/57399/screenshots/1809369/hilite-framework-home1_1x.png",
"player": {
"id": 57399,
"name": "Manuel Masia @pixedelic",
"location": "Italy, Misano Adriatico (Rimini)",
"followers_count": 625,
"draftees_count": 4,
"likes_count": 455,
"likes_received_count": 2181,
"comments_count": 52,
"comments_received_count": 127,
"rebounds_count": 28,
"rebounds_received_count": 27,
"url": "http://dribbble.com/pixedelic",
"avatar_url": "https://d13yacurqjgara.cloudfront.net/users/57399/avatars/normal/manu-beard.jpg?1396336519",
"username": "pixedelic",
"twitter_screen_name": "pixedelic",
"website_url": "http://www.pixedelic.com/",
"drafted_by_player_id": 34821,
"shots_count": 83,
"following_count": 217,
"created_at": "2011/08/26 09:57:13 -0400"
},
"created_at": "2014/11/15 03:36:27 -0500"
}
]
}
)
